nchan    = 4
bits     = 2
bbfilter = 8
freqref  = 8407.00,8415.00,8423.00,8431.00
pol      = RCP
netside  = U
pcal     = off
format   = vdif
barrel   = roll_off /
!--------------------------------------------------------------------------
   firstlo= 8080,8080,8080,8080
   ifchan  =   A1,A1,A1,A1
   bbc     =   1,   2,   3,   4
   format = MARK5B   station  =  ONSALA60 /
!--------------------------------------------------------------------------
   firstlo= 7650,7650,7650,7650
   ifchan  =   A,   A,   A,   A
   bbc     =   1,   2,   3,   4
  format = VDIF   station  = METSAHOV /
!--------------------------------------------------------------------------
   firstlo=7600,7600,7600,7600
   ifchan='A1','A1','A1','A1'
   bbc = 1,2,3,4
   format   = VDIF station  = WARK /
!--------------------------------------------------------------------------
   firstlo=9040,9040,9040,9040
   ifchan='A1','A1','A1','A1'
   bbc = 1,2,3,4
   station = CEDUNA format = VDIF /
!--------------------------------------------------------------------------
   firstlo=7600,7600,7600,7600
   ifchan='A1','A1','A1','A1'
   bbc = 1,2,3,4
   station = HOBART12 format = VDIF /
!--------------------------------------------------------------------------
   firstlo=8800,8800,8800,8800
   ifchan='A3','A3','A3','A3'
   bbc= 1,2,3,4
   station=HOBART26 format = VDIF /
!--------------------------------------------------------------------------
   firstlo=7600,7600,7600,7600
   ifchan='A1','A1','A1','A1'
   bbc = 1,2,3,4
   station = KATHERIN format = VDIF /
!--------------------------------------------------------------------------
   firstlo=7600,7600,7600,7600
   ifchan='A1','A1','A1','A1'
   bbc = 1,2,3,4
   station = YARRAGAD format = VDIF /
!--------------------------------------------------------------------------
  firstlo=7680,7680,7680,7680
   ifchan='1N','1N','1N','1N'
   bbc = 1,3,5,7
   station  = KASHIM11 /
!--------------------------------------------------------------------------
  firstlo=8080,8080,8080,8080
   ifchan='1N','1N','1N','1N'
   bbc = 1,3,5,7
   station  = YAMAGU32 /
!--------------------------------------------------------------------------
   firstlo=8080,8080,8080,8080
   ifchan='A','A','A','A'
   bbc=   1,   2,   3,   4
   format   = Mark5B station  = BADARY, SVETLOE, ZELENCHK /
!--------------------------------------------------------------------------
   firstlo=7800,7800,7800,7800
   ifchan='2N','2N','2N','2N'
   bbc= 1,3,5,7
   station=MOPRA /
!--------------------------------------------------------------------------
   firstlo=7800,7800,7800,7800
   ifchan='2N','2N','2N','2N'
   bbc= 1,3,5,7
   station=ATCA /
!--------------------------------------------------------------------------
   firstlo=8080,8080,8080,8080
   ifchan='A1','A1','A1','A1'
   bbc= 1,2,3,4
   station= Hart15m ,Hart /
!--------------------------------------------------------------------------
   firstlo= 8100,8100,8100,8100
   ifchan  =  A,  A,  A,  A                          
   bbc     =  1,  2,  3,  4
   format = MARK5B   station  = Shanghai,kunming,URUMQI,tianma65 /
!--------------------------------------------------------------------------
   firstlo=0.0
   ifchan='A','A','A','A'
   bbc= 4,4,4,4
   station=KVNUS /
!--------------------------------------------------------------------------
!
   firstlo=8080,8080,8080,8080
   ifchan= A, A, A, A
   bbc=    1, 2, 3, 4
   format = VDIF station  = WETTZELL /
!--------------------------------------------------------------------------
